{"count":326,"next":"https://ll.thespacedevs.com/2.0.0/launch/upcoming/?limit=10&offset=10","previous":null,"results":[{"id":"ec6b5681-566f-465e-a164-97cfe48b6172","url":"https://ll.thespacedevs.com/2.0.0/launch/ec6b5681-566f-465e-a164-97cfe48b6172/","launch_library_id":null,"slug":"falcon-9-block-5-starlink-group-6-25","name":"Falcon 9 Block 5 | Starlink Group 6-25","status":{"id":3,"name":"Success"},"net":"2023-10-30T23:20:30Z","window_end":"2023-10-31T02:22:00Z","window_start":"2023-10-30T23:20:30Z","inhold":false,"tbdtime":false,"tbddate":false,"probability":95,"holdreason":"","failreason":"","hashtag":null,"launch_service_provider":{"id":121,"url":"https://ll.thespacedevs.com/2.0.0/agencies/121/","name":"SpaceX","type":"Commercial"},"rocket":{"id":7964,"configuration":{"id":164,"launch_library_id":188,"url":"https://ll.thespacedevs.com/2.0.0/config/launcher/164/","name":"Falcon 9","family":"Falcon","full_name":"Falcon 9 Block 5","variant":"Block 5"}},"mission":{"id":6481,"launch_library_id":null,"name":"Starlink Group 6-25","description":"A batch of 23 satellites for the Starlink mega-constellation - SpaceX's project for space-based Internet communication system.","launch_designator":null,"type":"Communications","orbit":{"id":8,"name":"Low Earth Orbit","abbrev":"LEO"}},"pad":{"id":80,"url":"https://ll.thespacedevs.com/2.0.0/pad/80/","agency_id":121,"name":"Space Launch Complex 40","info_url":null,"wiki_url":"https://en.wikipedia.org/wiki/Cape_Canaveral_Air_Force_Station_Space_Launch_Complex_40","map_url":"https://www.google.com/maps?q=28.56194122,-80.57735736","latitude":"28.56194122","longitude":"-80.57735736","location":{"id":12,"url":"https://ll.thespacedevs.com/2.0.0/location/12/","name":"Cape Canaveral, FL, USA","country_code":"USA","map_image":"https://spacelaunchnow-prod-east.nyc3.digitaloceanspaces.com/media/launch_images/location_12_20200803142519.jpg","total_launch_count":916,"total_landing_count":39},"map_image":"https://spacelaunchnow-prod-east.nyc3.digitaloceanspaces.com/media/launch_images/pad_80_20200803143323.jpg","total_launch_count":207},"webcast_live":false,"image":"https://spacelaunchnow-prod-east.nyc3.digitaloceanspaces.com/media/launch_images/falcon2520925_image_20230727064542.png","infographic":null,"program":[]},{"id":"938bc342-1fb9-4747-8012-30878a237d81","url":"https://ll.thespacedevs.com/2.0.0/launch/938bc342-1fb9-4747-8012-30878a237d81/","launch_library_id":null,"slug":"long-march-4c-unknown-payload","name":"Long March 4C | Unknown Payload","status":{"id":1,"name":"Go"},"net":"2023-10-31T23:05:00Z","window_end":"2023-10-31T23:33:00Z","window_start":"2023-10-31T22:41:00Z","inhold":false,"tbdtime":false,"tbddate":false,"probability":null,"holdreason":"","failreason":"","hashtag":null,"launch_service_provider":{"id":88,"url":"https://ll.thespacedevs.com/2.0.0/agencies/88/","name":"China Aerospace Science and Technology Corporation","type":"Government"},"rocket":{"id":8053,"configuration":{"id":64,"launch_library_id":70,"url":"https://ll.thespacedevs.com/2.0.0/config/launcher/64/","name":"Long March 4C","family":"Long March 4","full_name":"Long March 4C","variant":"C"}},"mission":{"id":6601,"launch_library_id":null,"name":"Unknown Payload","description":"?","launch_designator":null,"type":"Unknown","orbit":{"id":25,"name":"Unknown","abbrev":"N/A"}},"pad":{"id":25,"url":"https://ll.thespacedevs.com/2.0.0/pad/25/","agency_id":null,"name":"Launch Complex 9","info_url":null,"wiki_url":null,"map_url":"https://www.google.com/maps?q=38.863128,111.589567","latitude":"38.863128","longitude":"111.589567","location":{"id":19,"url":"https://ll.thespacedevs.com/2.0.0/location/19/","name":"Taiyuan Satellite Launch Center, People's Republic of China","country_code":"CHN","map_image":"https://spacelaunchnow-prod-east.nyc3.digitaloceanspaces.com/media/launch_images/location_19_20200803142421.jpg","total_launch_count":123,"total_landing_count":0},"map_image":"https://spacelaunchnow-prod-east.nyc3.digitaloceanspaces.com/media/launch_images/pad_25_20200803143501.jpg","total_launch_count":71},"webcast_live":false,"image":"https://spacelaunchnow-prod-east.nyc3.digitaloceanspaces.com/media/launcher_images/long_march_4c_image_20230801172338.jpeg","infographic":null,"program":[]},{"id":"577b4557-1291-4f26-8642-2f075490d580","url":"https://ll.thespacedevs.com/2.0.0/launch/577b4557-1291-4f26-8642-2f075490d580/","launch_library_id":null,"slug":"spaceshiptwo-galactic-05","name":"SpaceShipTwo | Galactic 05","status":{"id":2,"name":"TBD"},"net":"2023-11-02T00:00:00Z","window_end":"2023-11-02T00:00:00Z","window_start":"2023-11-02T00:00:00Z","inhold":false,"tbdtime":false,"tbddate":false,"probability":null,"holdreason":"","failreason":"","hashtag":null,"launch_service_provider":{"id":1024,"url":"https://ll.thespacedevs.com/2.0.0/agencies/1024/","name":"Virgin Galactic","type":"Private"},"rocket":{"id":8051,"configuration":{"id":465,"launch_library_id":null,"url":"https://ll.thespacedevs.com/2.0.0/config/launcher/465/","name":"SpaceShipTwo","family":"SpaceShipTwo","full_name":"SpaceShipTwo","variant":""}},"mission":{"id":6599,"launch_library_id":null,"name":"Galactic 05","description":"Fifth commercial Virgin Galactic mission.","launch_designator":null,"type":"Tourism","orbit":{"id":15,"name":"Suborbital","abbrev":"Sub"}},"pad":{"id":191,"url":"https://ll.thespacedevs.com/2.0.0/pad/191/","agency_id":1024,"name":"Spaceport America","info_url":"https://www.spaceportamerica.com/","wiki_url":"https://en.wikipedia.org/wiki/Spaceport_America","map_url":"https://www.google.com/maps?q=32.9902778,-106.9719162","latitude":"32.9902778","longitude":"-106.9719162","location":{"id":144,"url":"https://ll.thespacedevs.com/2.0.0/location/144/","name":"Air launch to Suborbital flight","country_code":"","map_image":"https://spacelaunchnow-prod-east.nyc3.digitaloceanspaces.com/media/launch_images/location_144_20200803142439.jpg","total_launch_count":83,"total_landing_count":0},"map_image":"https://spacelaunchnow-prod-east.nyc3.digitaloceanspaces.com/media/launch_images/pad_spaceport_america_20210522162030.jpg","total_launch_count":11},"webcast_live":false,"image":"https://spacelaunchnow-prod-east.nyc3.digitaloceanspaces.com/media/launcher_images/spaceshiptwo_image_20210522140909.jpeg","infographic":null,"program":[]},{"id":"4798f190-87fd-4d96-9c37-6f701a1f5a89","url":"https://ll.thespacedevs.com/2.0.0/launch/4798f190-87fd-4d96-9c37-6f701a1f5a89/","launch_library_id":null,"slug":"long-march-7a-unknown-payload","name":"Long March 7A | Unknown Payload","status":{"id":1,"name":"Go"},"net":"2023-11-03T15:00:00Z","window_end":"2023-11-03T16:59:00Z","window_start":"2023-11-03T14:44:00Z","inhold":false,"tbdtime":false,"tbddate":false,"probability":null,"holdreason":"","failreason":"","hashtag":null,"launch_service_provider":{"id":88,"url":"https://ll.thespacedevs.com/2.0.0/agencies/88/","name":"China Aerospace Science and Technology Corporation","type":"Government"},"rocket":{"id":8054,"configuration":{"id":216,"launch_library_id":247,"url":"https://ll.thespacedevs.com/2.0.0/config/launcher/216/","name":"Long March 7A","family":"Long March 7","full_name":"Long March 7A","variant":""}},"mission":{"id":6602,"launch_library_id":null,"name":"Unknown Payload","description":"?","launch_designator":null,"type":"Unknown","orbit":{"id":25,"name":"Unknown","abbrev":"N/A"}},"pad":{"id":176,"url":"https://ll.thespacedevs.com/2.0.0/pad/176/","agency_id":null,"name":"201","info_url":null,"wiki_url":"https://en.wikipedia.org/wiki/Wenchang_Spacecraft_Launch_Site","map_url":"https://www.google.com/maps?q=19.618452,110.955356","latitude":"19.618452","longitude":"110.955356","location":{"id":8,"url":"https://ll.thespacedevs.com/2.0.0/location/8/","name":"Wenchang Space Launch Site, People's Republic of China","country_code":"CHN","map_image":"https://spacelaunchnow-prod-east.nyc3.digitaloceanspaces.com/media/launch_images/location_8_20200803142445.jpg","total_launch_count":23,"total_landing_count":0},"map_image":"https://spacelaunchnow-prod-east.nyc3.digitaloceanspaces.com/media/launch_images/pad_176_20200803143412.jpg","total_launch_count":14},"webcast_live":false,"image":"https://spacelaunchnow-prod-east.nyc3.digitaloceanspaces.com/media/launcher_images/long_march_7a_image_20210311201838.jpg","infographic":null,"program":[]},{"id":"48f71d70-4df8-4b8d-a3c5-8b5f08ab9858","url":"https://ll.thespacedevs.com/2.0.0/launch/48f71d70-4df8-4b8d-a3c5-8b5f08ab9858/","launch_library_id":null,"slug":"falcon-9-block-5-starlink-group-6-26","name":"Falcon 9 Block 5 | Starlink Group 6-26","status":{"id":2,"name":"TBD"},"net":"2023-11-03T22:37:00Z","window_end":"2023-11-04T02:54:00Z","window_start":"2023-11-03T22:37:00Z","inhold":false,"tbdtime":false,"tbddate":false,"probability":null,"holdreason":"","failreason":"","hashtag":null,"launch_service_provider":{"id":121,"url":"https://ll.thespacedevs.com/2.0.0/agencies/121/","name":"SpaceX","type":"Commercial"},"rocket":{"id":7965,"configuration":{"id":164,"launch_library_id":188,"url":"https://ll.thespacedevs.com/2.0.0/config/launcher/164/","name":"Falcon 9","family":"Falcon","full_name":"Falcon 9 Block 5","variant":"Block 5"}},"mission":{"id":6482,"launch_library_id":null,"name":"Starlink Group 6-26","description":"A batch of satellites for the Starlink mega-constellation - SpaceX's project for space-based Internet communication system.","launch_designator":null,"type":"Communications","orbit":{"id":8,"name":"Low Earth Orbit","abbrev":"LEO"}},"pad":{"id":80,"url":"https://ll.thespacedevs.com/2.0.0/pad/80/","agency_id":121,"name":"Space Launch Complex 40","info_url":null,"wiki_url":"https://en.wikipedia.org/wiki/Cape_Canaveral_Air_Force_Station_Space_Launch_Complex_40","map_url":"https://www.google.com/maps?q=28.56194122,-80.57735736","latitude":"28.56194122","longitude":"-80.57735736","location":{"id":12,"url":"https://ll.thespacedevs.com/2.0.0/location/12/","name":"Cape Canaveral, FL, USA","country_code":"USA","map_image":"https://spacelaunchnow-prod-east.nyc3.digitaloceanspaces.com/media/launch_images/location_12_20200803142519.jpg","total_launch_count":916,"total_landing_count":39},"map_image":"https://spacelaunchnow-prod-east.nyc3.digitaloceanspaces.com/media/launch_images/pad_80_20200803143323.jpg","total_launch_count":207},"webcast_live":false,"image":"https://spacelaunchnow-prod-east.nyc3.digitaloceanspaces.com/media/launch_images/falcon2520925_image_20230727064652.png","infographic":null,"program":[]},{"id":"63076c5e-d16c-4f16-a6ac-2709fd5fab01","url":"https://ll.thespacedevs.com/2.0.0/launch/63076c5e-d16c-4f16-a6ac-2709fd5fab01/","launch_library_id":null,"slug":"falcon-9-block-5-dragon-crs-2-spx-29","name":"Falcon 9 Block 5 | Dragon CRS-2 SpX-29","status":{"id":1,"name":"Go"},"net":"2023-11-06T03:01:00Z","window_end":"2023-11-06T03:01:00Z","window_start":"2023-11-06T03:01:00Z","inhold":false,"tbdtime":false,"tbddate":false,"probability":null,"holdreason":"","failreason":"","hashtag":null,"launch_service_provider":{"id":121,"url":"https://ll.thespacedevs.com/2.0.0/agencies/121/","name":"SpaceX","type":"Commercial"},"rocket":{"id":7461,"configuration":{"id":164,"launch_library_id":188,"url":"https://ll.thespacedevs.com/2.0.0/config/launcher/164/","name":"Falcon 9","family":"Falcon","full_name":"Falcon 9 Block 5","variant":"Block 5"}},"mission":{"id":5859,"launch_library_id":null,"name":"Dragon CRS-2 SpX-29","description":"29th commercial resupply services mission to the International Space Station operated by SpaceX. The flight will be conducted under the second Commercial Resupply Services contract with NASA.\r\n\r\nCargo Dragon 2 brings supplies and payloads, including critical materials to directly support science and research investigations that occur onboard the orbiting laboratory.","launch_designator":null,"type":"Resupply","orbit":{"id":8,"name":"Low Earth Orbit","abbrev":"LEO"}},"pad":{"id":87,"url":"https://ll.thespacedevs.com/2.0.0/pad/87/","agency_id":121,"name":"Launch Complex 39A","info_url":null,"wiki_url":"https://en.wikipedia.org/wiki/Kennedy_Space_Center_Launch_Complex_39#Launch_Pad_39A","map_url":"https://www.google.com/maps?q=28.60822681,-80.60428186","latitude":"28.60822681","longitude":"-80.60428186","location":{"id":27,"url":"https://ll.thespacedevs.com/2.0.0/location/27/","name":"Kennedy Space Center, FL, USA","country_code":"USA","map_image":"https://spacelaunchnow-prod-east.nyc3.digitaloceanspaces.com/media/launch_images/location_27_20200803142447.jpg","total_launch_count":224,"total_landing_count":0},"map_image":"https://spacelaunchnow-prod-east.nyc3.digitaloceanspaces.com/media/launch_images/pad_87_20200803143537.jpg","total_launch_count":166},"webcast_live":false,"image":"https://spacelaunchnow-prod-east.nyc3.digitaloceanspaces.com/media/launch_images/falcon2520925_image_20210922155506.jpeg","infographic":null,"program":[{"id":11,"url":"https://ll.thespacedevs.com/2.0.0/program/11/","name":"Commercial Resupply Services","description":"Commercial Resupply Services (CRS) are a series of flights awarded by NASA for the delivery of cargo and supplies to the International Space Station.The first CRS contracts were signed in 2008 and awarded $1.6 billion to SpaceX for twelve cargo Dragon and $1.9 billion to Orbital Sciences for eight Cygnus flights, covering deliveries to 2016. The Falcon 9 and Antares rockets were also developed under the CRS program to deliver cargo spacecraft to the ISS.","agencies":[{"id":44,"url":"https://ll.thespacedevs.com/2.0.0/agencies/44/","name":"National Aeronautics and Space Administration","type":"Government"},{"id":257,"url":"https://ll.thespacedevs.com/2.0.0/agencies/257/","name":"Northrop Grumman Space Systems","type":"Commercial"},{"id":1020,"url":"https://ll.thespacedevs.com/2.0.0/agencies/1020/","name":"Sierra Nevada Corporation","type":"Commercial"},{"id":121,"url":"https://ll.thespacedevs.com/2.0.0/agencies/121/","name":"SpaceX","type":"Commercial"}],"image_url":"https://spacelaunchnow-prod-east.nyc3.digitaloceanspaces.com/media/program_images/commercial2520_program_20201129212219.png","start_date":"2008-12-23T00:00:00Z","end_date":null,"info_url":null,"wiki_url":"https://en.wikipedia.org/wiki/Commercial_Resupply_Services#Commercial_Resupply_Services"},{"id":17,"url":"https://ll.thespacedevs.com/2.0.0/program/17/","name":"International Space Station","description":"The International Space Station programme is tied together by a complex set of legal, political and financial agreements between the sixteen nations involved in the project, governing ownership of the various components, rights to crewing and utilization, and responsibilities for crew rotation and resupply of the International Space Station. It was conceived in 1984 by President Ronald Reagan, during the Space Station Freedom project as it was originally called.","agencies":[{"id":16,"url":"https://ll.thespacedevs.com/2.0.0/agencies/16/","name":"Canadian Space Agency","type":"Government"},{"id":27,"url":"https://ll.thespacedevs.com/2.0.0/agencies/27/","name":"European Space Agency","type":"Multinational"},{"id":37,"url":"https://ll.thespacedevs.com/2.0.0/agencies/37/","name":"Japan Aerospace Exploration Agency","type":"Government"},{"id":44,"url":"https://ll.thespacedevs.com/2.0.0/agencies/44/","name":"National Aeronautics and Space Administration","type":"Government"},{"id":63,"url":"https://ll.thespacedevs.com/2.0.0/agencies/63/","name":"Russian Federal Space Agency (ROSCOSMOS)","type":"Government"}],"image_url":"https://spacelaunchnow-prod-east.nyc3.digitaloceanspaces.com/media/program_images/international2_program_20201129184745.png","start_date":"1998-11-20T06:40:00Z","end_date":null,"info_url":"https://www.nasa.gov/mission_pages/station/main/index.html","wiki_url":"https://en.wikipedia.org/wiki/International_Space_Station_programme"}]},{"id":"a4a7fa7f-f3d9-467e-ac58-6e577155a969","url":"https://ll.thespacedevs.com/2.0.0/launch/a4a7fa7f-f3d9-467e-ac58-6e577155a969/","launch_library_id":null,"slug":"falcon-9-block-5-transporter-9-dedicated-sso-rides","name":"Falcon 9 Block 5 | Transporter 9 (Dedicated SSO Rideshare)","status":{"id":2,"name":"TBD"},"net":"2023-11-07T00:00:00Z","window_end":"2023-11-07T00:00:00Z","window_start":"2023-11-07T00:00:00Z","inhold":false,"tbdtime":false,"tbddate":false,"probability":null,"holdreason":"","failreason":"","hashtag":null,"launch_service_provider":{"id":121,"url":"https://ll.thespacedevs.com/2.0.0/agencies/121/","name":"SpaceX","type":"Commercial"},"rocket":{"id":7528,"configuration":{"id":164,"launch_library_id":188,"url":"https://ll.thespacedevs.com/2.0.0/config/launcher/164/","name":"Falcon 9","family":"Falcon","full_name":"Falcon 9 Block 5","variant":"Block 5"}},"mission":{"id":5947,"launch_library_id":null,"name":"Transporter 9 (Dedicated SSO Rideshare)","description":"Transporter 9 mission is a dedicated rideshare flight to a sun-synchronous orbit with dozens of small microsatellites and nanosatellites for commercial and government customers.","launch_designator":null,"type":"Dedicated Rideshare","orbit":{"id":17,"name":"Sun-Synchronous Orbit","abbrev":"SSO"}},"pad":{"id":16,"url":"https://ll.thespacedevs.com/2.0.0/pad/16/","agency_id":null,"name":"Space Launch Complex 4E","info_url":null,"wiki_url":"","map_url":"https://www.google.com/maps?q=34.632,-120.611","latitude":"34.632","longitude":"-120.611","location":{"id":11,"url":"https://ll.thespacedevs.com/2.0.0/location/11/","name":"Vandenberg SFB, CA, USA","country_code":"USA","map_image":"https://spacelaunchnow-prod-east.nyc3.digitaloceanspaces.com/media/launch_images/location_11_20200803142416.jpg","total_launch_count":733,"total_landing_count":12},"map_image":"https://spacelaunchnow-prod-east.nyc3.digitaloceanspaces.com/media/launch_images/pad_16_20200803143532.jpg","total_launch_count":123},"webcast_live":false,"image":"https://spacelaunchnow-prod-east.nyc3.digitaloceanspaces.com/media/launcher_images/falcon_9_image_20230807133459.jpeg","infographic":null,"program":[]},{"id":"0be2e9d6-50d5-49dc-b56c-a919b7e0dfd8","url":"https://ll.thespacedevs.com/2.0.0/launch/0be2e9d6-50d5-49dc-b56c-a919b7e0dfd8/","launch_library_id":null,"slug":"falcon-9-block-5-o3b-mpower-5-6","name":"Falcon 9 Block 5 | O3b mPower 5 & 6","status":{"id":2,"name":"TBD"},"net":"2023-11-30T00:00:00Z","window_end":"2023-11-30T00:00:00Z","window_start":"2023-11-30T00:00:00Z","inhold":false,"tbdtime":false,"tbddate":false,"probability":null,"holdreason":"","failreason":"","hashtag":null,"launch_service_provider":{"id":121,"url":"https://ll.thespacedevs.com/2.0.0/agencies/121/","name":"SpaceX","type":"Commercial"},"rocket":{"id":7552,"configuration":{"id":164,"launch_library_id":188,"url":"https://ll.thespacedevs.com/2.0.0/config/launcher/164/","name":"Falcon 9","family":"Falcon","full_name":"Falcon 9 Block 5","variant":"Block 5"}},"mission":{"id":6156,"launch_library_id":null,"name":"O3b mPower 5 & 6","description":"Fifth and sixth of a constellation of eleven high-throughput communications satellites in Medium Earth Orbit (MEO) built by Boeing and operated by SES.","launch_designator":null,"type":"Communications","orbit":{"id":12,"name":"Medium Earth Orbit","abbrev":"MEO"}},"pad":{"id":80,"url":"https://ll.thespacedevs.com/2.0.0/pad/80/","agency_id":121,"name":"Space Launch Complex 40","info_url":null,"wiki_url":"https://en.wikipedia.org/wiki/Cape_Canaveral_Air_Force_Station_Space_Launch_Complex_40","map_url":"https://www.google.com/maps?q=28.56194122,-80.57735736","latitude":"28.56194122","longitude":"-80.57735736","location":{"id":12,"url":"https://ll.thespacedevs.com/2.0.0/location/12/","name":"Cape Canaveral, FL, USA","country_code":"USA","map_image":"https://spacelaunchnow-prod-east.nyc3.digitaloceanspaces.com/media/launch_images/location_12_20200803142519.jpg","total_launch_count":916,"total_landing_count":39},"map_image":"https://spacelaunchnow-prod-east.nyc3.digitaloceanspaces.com/media/launch_images/pad_80_20200803143323.jpg","total_launch_count":207},"webcast_live":false,"image":"https://spacelaunchnow-prod-east.nyc3.digitaloceanspaces.com/media/launcher_images/falcon_9_image_20230807133459.jpeg","infographic":null,"program":[]},{"id":"6159729f-70fd-4817-9223-b250dca18f5f","url":"https://ll.thespacedevs.com/2.0.0/launch/6159729f-70fd-4817-9223-b250dca18f5f/","launch_library_id":null,"slug":"falcon-9-block-5-starlink-group-6-27","name":"Falcon 9 Block 5 | Starlink Group 6-27","status":{"id":2,"name":"TBD"},"net":"2023-11-30T00:00:00Z","window_end":"2023-11-30T00:00:00Z","window_start":"2023-11-30T00:00:00Z","inhold":false,"tbdtime":false,"tbddate":false,"probability":null,"holdreason":"","failreason":"","hashtag":null,"launch_service_provider":{"id":121,"url":"https://ll.thespacedevs.com/2.0.0/agencies/121/","name":"SpaceX","type":"Commercial"},"rocket":{"id":7943,"configuration":{"id":164,"launch_library_id":188,"url":"https://ll.thespacedevs.com/2.0.0/config/launcher/164/","name":"Falcon 9","family":"Falcon","full_name":"Falcon 9 Block 5","variant":"Block 5"}},"mission":{"id":6452,"launch_library_id":null,"name":"Starlink Group 6-27","description":"A batch of satellites for the Starlink mega-constellation - SpaceX's project for space-based Internet communication system.","launch_designator":null,"type":"Communications","orbit":{"id":8,"name":"Low Earth Orbit","abbrev":"LEO"}},"pad":{"id":72,"url":"https://ll.thespacedevs.com/2.0.0/pad/72/","agency_id":null,"name":"Unknown Pad","info_url":null,"wiki_url":"","map_url":"https://www.google.com/maps?q=28.458,-80.528","latitude":"28.458","longitude":"-80.528","location":{"id":12,"url":"https://ll.thespacedevs.com/2.0.0/location/12/","name":"Cape Canaveral, FL, USA","country_code":"USA","map_image":"https://spacelaunchnow-prod-east.nyc3.digitaloceanspaces.com/media/launch_images/location_12_20200803142519.jpg","total_launch_count":916,"total_landing_count":39},"map_image":"https://spacelaunchnow-prod-east.nyc3.digitaloceanspaces.com/media/launch_images/pad_72_20200803143403.jpg","total_launch_count":0},"webcast_live":false,"image":"https://spacelaunchnow-prod-east.nyc3.digitaloceanspaces.com/media/launch_images/falcon2520925_image_20230622063448.png","infographic":null,"program":[]},{"id":"c326f57f-defb-410d-92a8-6776b63521c8","url":"https://ll.thespacedevs.com/2.0.0/launch/c326f57f-defb-410d-92a8-6776b63521c8/","launch_library_id":null,"slug":"new-shepard-ns-24","name":"New Shepard | NS-24","status":{"id":2,"name":"TBD"},"net":"2023-11-30T00:00:00Z","window_end":"2023-11-30T00:00:00Z","window_start":"2023-11-30T00:00:00Z","inhold":false,"tbdtime":false,"tbddate":false,"probability":null,"holdreason":"","failreason":"","hashtag":null,"launch_service_provider":{"id":141,"url":"https://ll.thespacedevs.com/2.0.0/agencies/141/","name":"Blue Origin","type":"Commercial"},"rocket":{"id":8021,"configuration":{"id":137,"launch_library_id":9999,"url":"https://ll.thespacedevs.com/2.0.0/config/launcher/137/","name":"New Shepard","family":"Blue Origin","full_name":"New Shepard","variant":""}},"mission":{"id":6556,"launch_library_id":null,"name":"NS-24","description":"Twenty-fourth flight of New Shepard carrying the same 36 science and research payloads and tens of thousands of postcards from Club For Future that flew on the failed NS-23 flight.","launch_designator":null,"type":"Suborbital","orbit":{"id":15,"name":"Suborbital","abbrev":"Sub"}},"pad":{"id":90,"url":"https://ll.thespacedevs.com/2.0.0/pad/90/","agency_id":141,"name":"West Texas Suborbital Launch Site/ Corn Ranch","info_url":"http://www.blueorigin.com","wiki_url":"https://en.wikipedia.org/wiki/Corn_Ranch","map_url":"https://www.google.com/maps?q=31.422878000000000,-104.757121000000000","latitude":"31.422878000000000","longitude":"-104.757121000000000","location":{"id":29,"url":"https://ll.thespacedevs.com/2.0.0/location/29/","name":"Corn Ranch, Van Horn, TX, USA","country_code":"USA","map_image":"https://spacelaunchnow-prod-east.nyc3.digitaloceanspaces.com/media/launch_images/location_29_20200803142436.jpg","total_launch_count":23,"total_landing_count":23},"map_image":"https://spacelaunchnow-prod-east.nyc3.digitaloceanspaces.com/media/launch_images/pad_90_20200803143233.jpg","total_launch_count":23},"webcast_live":false,"image":"https://spacelaunchnow-prod-east.nyc3.digitaloceanspaces.com/media/launcher_images/new2520shepard_image_20190207032624.jpeg","infographic":null,"program":[]}]}